{
"type": "FeatureCollection",
"crs": { "type": "name", "properties": { "name": "urn:ogc:def:crs:OGC:1.3:CRS84" } },
                                                                                
"features": [
{ "type": "Feature", "properties": { "id": null }, "geometry": { "type": "Polygon", "coordinates": [ [ [ 6.657243736264128, 46.779574206002295 ], [ 6.660425091145624, 46.78120814163038 ], [ 6.662869302822872, 46.779414794993535 ], [ 6.660134113564999, 46.77800221571249 ], [ 6.657127345231877, 46.778684155164605 ], [ 6.657243736264128, 46.779574206002295 ] ] ] } }
]
}
